<?xml version="1.0" encoding="UTF-8" standalone="no"?>
<!DOCTYPE svg PUBLIC "-//W3C//DTD SVG 1.1//EN" "http://www.w3.org/Graphics/SVG/1.1/DTD/svg11.dtd">
<svg width="100%" height="100%" viewBox="0 0 178 43" version="1.1" xmlns="http://www.w3.org/2000/svg" xmlns:xlink="http://www.w3.org/1999/xlink" xml:space="preserve" xmlns:serif="http://www.serif.com/" style="fill-rule:evenodd;clip-rule:evenodd;stroke-linejoin:round;stroke-miterlimit:2;">
    <g id="Artboard2" transform="matrix(1,0,0,1,0,6.69062)">
        <rect x="0" y="-6.691" width="178" height="42.691" style="fill:none;"/>
        <clipPath id="_clip1">
            <rect x="0" y="-6.691" width="178" height="42.691"/>
        </clipPath>
        <g clip-path="url(#_clip1)">
            <g transform="matrix(0.148268,0,0,0.148268,75.8041,12.4819)">
                <g id="Artboard1">
                    <g>
                        <g transform="matrix(4.16667,0,0,4.16667,-116.072,153.804)">
                            <path d="M0,-6.611L2.307,-6.611C2.773,-6.611 3.182,-6.558 3.534,-6.453C3.886,-6.347 4.191,-6.205 4.449,-6.027C4.708,-5.85 4.922,-5.646 5.094,-5.416C5.265,-5.186 5.401,-4.949 5.5,-4.706C5.6,-4.464 5.671,-4.221 5.715,-3.978C5.759,-3.735 5.78,-3.511 5.78,-3.305C5.78,-2.882 5.702,-2.473 5.546,-2.078C5.391,-1.682 5.161,-1.331 4.856,-1.022C4.551,-0.715 4.173,-0.466 3.721,-0.28C3.27,-0.093 2.748,0 2.157,0L0,0L0,-6.611ZM0.896,-0.84L2.026,-0.84C2.406,-0.84 2.765,-0.892 3.105,-0.994C3.444,-1.097 3.742,-1.251 3.996,-1.457C4.252,-1.662 4.454,-1.919 4.603,-2.227C4.753,-2.536 4.828,-2.894 4.828,-3.305C4.828,-3.517 4.794,-3.765 4.725,-4.048C4.656,-4.331 4.528,-4.6 4.338,-4.856C4.147,-5.111 3.885,-5.327 3.549,-5.505C3.212,-5.682 2.777,-5.771 2.241,-5.771L0.896,-5.771L0.896,-0.84Z" style="fill:rgb(43,61,118);fill-rule:nonzero;"/>
                        </g>
                        <g transform="matrix(4.16667,0,0,4.16667,-70.1992,153.804)">
                            <path d="M0,-6.611L0.812,-6.611L3.642,0L2.596,0L1.933,-1.634L-1.214,-1.634L-1.868,0L-2.914,0L0,-6.611ZM1.606,-2.419L0.373,-5.454L0.355,-5.454L-0.897,-2.419L1.606,-2.419Z" style="fill:rgb(43,61,118);fill-rule:nonzero;"/>
                        </g>
                        <g transform="matrix(4.16667,0,0,4.16667,-41.4829,150.304)">
                            <path d="M0,-4.931L-2.13,-4.931L-2.13,-5.771L3.025,-5.771L3.025,-4.931L0.896,-4.931L0.896,0.84L0,0.84L0,-4.931Z" style="fill:rgb(43,61,118);fill-rule:nonzero;"/>
                        </g>
                        <g transform="matrix(4.16667,0,0,4.16667,-12.0713,153.804)">
                            <path d="M0,-6.611L0.812,-6.611L3.642,0L2.596,0L1.934,-1.634L-1.214,-1.634L-1.868,0L-2.914,0L0,-6.611ZM1.606,-2.419L0.373,-5.454L0.355,-5.454L-0.896,-2.419L1.606,-2.419Z" style="fill:rgb(43,61,118);fill-rule:nonzero;"/>
                        </g>
                        <g transform="matrix(4.16667,0,0,4.16667,33.6442,147.85)">
                            <path d="M0,-3.753C-0.187,-3.996 -0.424,-4.183 -0.709,-4.314C-0.996,-4.445 -1.291,-4.51 -1.597,-4.51C-1.97,-4.51 -2.308,-4.44 -2.61,-4.3C-2.912,-4.159 -3.17,-3.968 -3.385,-3.725C-3.6,-3.482 -3.766,-3.198 -3.885,-2.871C-4.003,-2.544 -4.062,-2.194 -4.062,-1.821C-4.062,-1.472 -4.006,-1.142 -3.894,-0.831C-3.781,-0.519 -3.62,-0.245 -3.408,-0.008C-3.197,0.228 -2.938,0.414 -2.633,0.552C-2.328,0.688 -1.983,0.757 -1.597,0.757C-1.217,0.757 -0.884,0.679 -0.597,0.523C-0.311,0.368 -0.068,0.15 0.13,-0.13L0.887,0.439C0.837,0.508 0.75,0.606 0.626,0.733C0.501,0.861 0.336,0.989 0.13,1.117C-0.075,1.244 -0.322,1.356 -0.611,1.453C-0.901,1.549 -1.236,1.597 -1.615,1.597C-2.138,1.597 -2.61,1.498 -3.031,1.298C-3.45,1.099 -3.808,0.838 -4.104,0.514C-4.4,0.19 -4.626,-0.176 -4.781,-0.583C-4.937,-0.991 -5.014,-1.403 -5.014,-1.821C-5.014,-2.331 -4.93,-2.803 -4.762,-3.235C-4.594,-3.668 -4.359,-4.042 -4.057,-4.355C-3.755,-4.67 -3.393,-4.915 -2.969,-5.088C-2.546,-5.263 -2.079,-5.35 -1.568,-5.35C-1.133,-5.35 -0.705,-5.266 -0.285,-5.098C0.136,-4.93 0.479,-4.672 0.747,-4.323L0,-3.753Z" style="fill:rgb(43,61,118);fill-rule:nonzero;"/>
                        </g>
                        <g transform="matrix(4.16667,0,0,4.16667,62.2817,125.556)">
                            <path d="M0,6.948C-0.505,6.948 -0.968,6.859 -1.391,6.682C-1.815,6.504 -2.177,6.26 -2.479,5.949C-2.781,5.637 -3.018,5.27 -3.189,4.847C-3.361,4.424 -3.446,3.966 -3.446,3.474C-3.446,2.982 -3.361,2.525 -3.189,2.101C-3.018,1.678 -2.781,1.311 -2.479,1C-2.177,0.688 -1.815,0.444 -1.391,0.267C-0.968,0.089 -0.505,0 0,0C0.504,0 0.968,0.089 1.391,0.267C1.815,0.444 2.177,0.688 2.479,1C2.781,1.311 3.018,1.678 3.188,2.101C3.36,2.525 3.446,2.982 3.446,3.474C3.446,3.966 3.36,4.424 3.188,4.847C3.018,5.27 2.781,5.637 2.479,5.949C2.177,6.26 1.815,6.504 1.391,6.682C0.968,6.859 0.504,6.948 0,6.948M0,6.107C0.379,6.107 0.722,6.037 1.027,5.897C1.332,5.757 1.593,5.569 1.812,5.332C2.03,5.096 2.198,4.817 2.315,4.497C2.434,4.176 2.494,3.835 2.494,3.474C2.494,3.113 2.434,2.772 2.315,2.452C2.198,2.131 2.03,1.852 1.812,1.615C1.593,1.379 1.332,1.191 1.027,1.051C0.722,0.91 0.379,0.84 0,0.84C-0.38,0.84 -0.722,0.91 -1.027,1.051C-1.332,1.191 -1.594,1.379 -1.811,1.615C-2.03,1.852 -2.198,2.131 -2.316,2.452C-2.434,2.772 -2.494,3.113 -2.494,3.474C-2.494,3.835 -2.434,4.176 -2.316,4.497C-2.198,4.817 -2.03,5.096 -1.811,5.332C-1.594,5.569 -1.332,5.757 -1.027,5.897C-0.722,6.037 -0.38,6.107 0,6.107" style="fill:rgb(43,61,118);fill-rule:nonzero;"/>
                        </g>
                        <g transform="matrix(4.16667,0,0,4.16667,89.5179,153.804)">
                            <path d="M0,-6.611L1.334,-6.611L3.436,-1.606L3.473,-1.606L5.555,-6.611L6.891,-6.611L6.891,0L5.994,0L5.994,-5.435L5.975,-5.435L3.744,0L3.146,0L0.915,-5.435L0.896,-5.435L0.896,0L0,0L0,-6.611Z" style="fill:rgb(43,61,118);fill-rule:nonzero;"/>
                        </g>
                        <g transform="matrix(4.16667,0,0,4.16667,132.55,153.804)">
                            <path d="M0,-6.611L1.334,-6.611L3.436,-1.606L3.473,-1.606L5.555,-6.611L6.891,-6.611L6.891,0L5.994,0L5.994,-5.435L5.976,-5.435L3.745,0L3.146,0L0.915,-5.435L0.896,-5.435L0.896,0L0,0L0,-6.611Z" style="fill:rgb(43,61,118);fill-rule:nonzero;"/>
                        </g>
                        <g transform="matrix(4.16667,0,0,4.16667,213.632,147.85)">
                            <path d="M0,-3.753C-0.187,-3.996 -0.424,-4.183 -0.71,-4.314C-0.997,-4.445 -1.292,-4.51 -1.597,-4.51C-1.97,-4.51 -2.308,-4.44 -2.61,-4.3C-2.912,-4.159 -3.17,-3.968 -3.385,-3.725C-3.6,-3.482 -3.766,-3.198 -3.885,-2.871C-4.002,-2.544 -4.062,-2.194 -4.062,-1.821C-4.062,-1.472 -4.006,-1.142 -3.894,-0.831C-3.781,-0.519 -3.62,-0.245 -3.408,-0.008C-3.197,0.228 -2.938,0.414 -2.633,0.552C-2.328,0.688 -1.983,0.757 -1.597,0.757C-1.217,0.757 -0.884,0.679 -0.597,0.523C-0.311,0.368 -0.069,0.15 0.13,-0.13L0.888,0.439C0.837,0.508 0.75,0.606 0.626,0.733C0.501,0.861 0.336,0.989 0.13,1.117C-0.075,1.244 -0.322,1.356 -0.612,1.453C-0.901,1.549 -1.236,1.597 -1.615,1.597C-2.138,1.597 -2.61,1.498 -3.031,1.298C-3.45,1.099 -3.808,0.838 -4.104,0.514C-4.4,0.19 -4.626,-0.176 -4.781,-0.583C-4.937,-0.991 -5.014,-1.403 -5.014,-1.821C-5.014,-2.331 -4.931,-2.803 -4.762,-3.235C-4.594,-3.668 -4.36,-4.042 -4.057,-4.355C-3.755,-4.67 -3.393,-4.915 -2.969,-5.088C-2.546,-5.263 -2.079,-5.35 -1.568,-5.35C-1.133,-5.35 -0.705,-5.266 -0.285,-5.098C0.136,-4.93 0.479,-4.672 0.747,-4.323L0,-3.753Z" style="fill:rgb(43,61,118);fill-rule:nonzero;"/>
                        </g>
                        <g transform="matrix(4.16667,0,0,4.16667,229.623,153.804)">
                            <path d="M0,-6.611L0.897,-6.611L0.897,-0.84L3.93,-0.84L3.93,0L0,0L0,-6.611Z" style="fill:rgb(43,61,118);fill-rule:nonzero;"/>
                        </g>
                        <g transform="matrix(4.16667,0,0,4.16667,270.243,125.556)">
                            <path d="M0,6.948C-0.504,6.948 -0.968,6.859 -1.391,6.682C-1.815,6.504 -2.177,6.26 -2.479,5.949C-2.781,5.637 -3.018,5.27 -3.189,4.847C-3.36,4.424 -3.446,3.966 -3.446,3.474C-3.446,2.982 -3.36,2.525 -3.189,2.101C-3.018,1.678 -2.781,1.311 -2.479,1C-2.177,0.688 -1.815,0.444 -1.391,0.267C-0.968,0.089 -0.504,0 0,0C0.504,0 0.968,0.089 1.391,0.267C1.815,0.444 2.177,0.688 2.479,1C2.781,1.311 3.018,1.678 3.189,2.101C3.36,2.525 3.446,2.982 3.446,3.474C3.446,3.966 3.36,4.424 3.189,4.847C3.018,5.27 2.781,5.637 2.479,5.949C2.177,6.26 1.815,6.504 1.391,6.682C0.968,6.859 0.504,6.948 0,6.948M0,6.107C0.38,6.107 0.722,6.037 1.027,5.897C1.332,5.757 1.594,5.569 1.812,5.332C2.03,5.096 2.198,4.817 2.315,4.497C2.434,4.176 2.493,3.835 2.493,3.474C2.493,3.113 2.434,2.772 2.315,2.452C2.198,2.131 2.03,1.852 1.812,1.615C1.594,1.379 1.332,1.191 1.027,1.051C0.722,0.91 0.38,0.84 0,0.84C-0.38,0.84 -0.722,0.91 -1.027,1.051C-1.332,1.191 -1.594,1.379 -1.811,1.615C-2.03,1.852 -2.198,2.131 -2.316,2.452C-2.434,2.772 -2.494,3.113 -2.494,3.474C-2.494,3.835 -2.434,4.176 -2.316,4.497C-2.198,4.817 -2.03,5.096 -1.811,5.332C-1.594,5.569 -1.332,5.757 -1.027,5.897C-0.722,6.037 -0.38,6.107 0,6.107" style="fill:rgb(43,61,118);fill-rule:nonzero;"/>
                        </g>
                        <g transform="matrix(4.16667,0,0,4.16667,300.978,154.504)">
                            <path d="M0,-6.779L0,-2.727C0,-2.521 0.028,-2.308 0.084,-2.087C0.14,-1.866 0.234,-1.662 0.364,-1.475C0.495,-1.288 0.666,-1.136 0.878,-1.018C1.089,-0.9 1.351,-0.84 1.662,-0.84C1.974,-0.84 2.235,-0.9 2.447,-1.018C2.658,-1.136 2.83,-1.288 2.96,-1.475C3.091,-1.662 3.184,-1.866 3.24,-2.087C3.296,-2.308 3.324,-2.521 3.324,-2.727L3.324,-6.779L4.221,-6.779L4.221,-2.587C4.221,-2.2 4.155,-1.85 4.025,-1.536C3.894,-1.222 3.713,-0.949 3.483,-0.719C3.252,-0.489 2.982,-0.311 2.671,-0.187C2.36,-0.062 2.023,0 1.662,0C1.301,0 0.965,-0.062 0.654,-0.187C0.343,-0.311 0.072,-0.489 -0.158,-0.719C-0.389,-0.949 -0.569,-1.222 -0.7,-1.536C-0.831,-1.85 -0.896,-2.2 -0.896,-2.587L-0.896,-6.779L0,-6.779Z" style="fill:rgb(43,61,118);fill-rule:nonzero;"/>
                        </g>
                        <g transform="matrix(4.16667,0,0,4.16667,332.303,153.804)">
                            <path d="M0,-6.611L2.306,-6.611C2.773,-6.611 3.182,-6.558 3.534,-6.453C3.885,-6.347 4.19,-6.205 4.449,-6.027C4.707,-5.85 4.922,-5.646 5.093,-5.416C5.264,-5.186 5.4,-4.949 5.5,-4.706C5.599,-4.464 5.671,-4.221 5.714,-3.978C5.758,-3.735 5.779,-3.511 5.779,-3.305C5.779,-2.882 5.702,-2.473 5.546,-2.078C5.391,-1.682 5.16,-1.331 4.855,-1.022C4.55,-0.715 4.172,-0.466 3.721,-0.28C3.27,-0.093 2.748,0 2.156,0L0,0L0,-6.611ZM0.896,-0.84L2.026,-0.84C2.405,-0.84 2.765,-0.892 3.104,-0.994C3.444,-1.097 3.741,-1.251 3.996,-1.457C4.252,-1.662 4.454,-1.919 4.603,-2.227C4.752,-2.536 4.827,-2.894 4.827,-3.305C4.827,-3.517 4.793,-3.765 4.724,-4.048C4.656,-4.331 4.527,-4.6 4.337,-4.856C4.147,-5.111 3.884,-5.327 3.548,-5.505C3.212,-5.682 2.776,-5.771 2.241,-5.771L0.896,-5.771L0.896,-0.84Z" style="fill:rgb(43,61,118);fill-rule:nonzero;"/>
                        </g>
                        <g transform="matrix(4.16667,0,0,4.16667,388.95,132.017)">
                            <path d="M0,3.847C0.162,4.09 0.369,4.269 0.62,4.384C0.873,4.499 1.133,4.556 1.4,4.556C1.55,4.556 1.702,4.533 1.858,4.486C2.013,4.44 2.155,4.37 2.283,4.277C2.411,4.183 2.515,4.068 2.596,3.931C2.676,3.794 2.717,3.636 2.717,3.455C2.717,3.2 2.637,3.005 2.474,2.871C2.312,2.737 2.111,2.625 1.872,2.535C1.632,2.445 1.37,2.358 1.088,2.273C0.804,2.19 0.543,2.073 0.303,1.924C0.064,1.774 -0.138,1.573 -0.299,1.321C-0.462,1.069 -0.542,0.728 -0.542,0.299C-0.542,0.105 -0.5,-0.1 -0.416,-0.317C-0.332,-0.536 -0.2,-0.735 -0.019,-0.915C0.162,-1.096 0.394,-1.247 0.677,-1.369C0.96,-1.49 1.301,-1.55 1.699,-1.55C2.06,-1.55 2.405,-1.501 2.735,-1.401C3.065,-1.301 3.355,-1.099 3.604,-0.794L2.876,-0.131C2.764,-0.306 2.605,-0.445 2.4,-0.551C2.194,-0.657 1.96,-0.71 1.699,-0.71C1.45,-0.71 1.244,-0.677 1.078,-0.612C0.914,-0.547 0.781,-0.462 0.682,-0.36C0.582,-0.257 0.512,-0.147 0.471,-0.029C0.431,0.09 0.411,0.199 0.411,0.299C0.411,0.578 0.492,0.793 0.654,0.942C0.816,1.093 1.016,1.214 1.255,1.307C1.495,1.4 1.757,1.485 2.04,1.559C2.324,1.634 2.584,1.738 2.824,1.872C3.064,2.006 3.265,2.186 3.427,2.414C3.589,2.641 3.67,2.954 3.67,3.352C3.67,3.67 3.609,3.956 3.487,4.211C3.366,4.467 3.203,4.681 2.997,4.855C2.792,5.03 2.549,5.163 2.269,5.257C1.989,5.351 1.69,5.397 1.372,5.397C0.949,5.397 0.548,5.323 0.168,5.173C-0.212,5.023 -0.514,4.793 -0.739,4.482L0,3.847Z" style="fill:rgb(43,61,118);fill-rule:nonzero;"/>
                        </g>
                        <g transform="matrix(4.16667,0,0,4.16667,417.545,153.804)">
                            <path d="M0,-6.611L4.268,-6.611L4.268,-5.771L0.897,-5.771L0.897,-3.801L4.034,-3.801L4.034,-2.96L0.897,-2.96L0.897,-0.84L4.436,-0.84L4.436,0L0,0L0,-6.611Z" style="fill:rgb(43,61,118);fill-rule:nonzero;"/>
                        </g>
                        <g transform="matrix(4.16667,0,0,4.16667,449.102,153.804)">
                            <path d="M0,-6.611L2.325,-6.611C2.748,-6.611 3.097,-6.553 3.37,-6.438C3.645,-6.323 3.861,-6.177 4.02,-5.999C4.179,-5.822 4.289,-5.623 4.351,-5.402C4.414,-5.181 4.445,-4.968 4.445,-4.762C4.445,-4.551 4.407,-4.347 4.333,-4.151C4.258,-3.955 4.15,-3.778 4.01,-3.618C3.87,-3.46 3.698,-3.326 3.497,-3.217C3.295,-3.107 3.069,-3.041 2.82,-3.016L4.697,0L3.576,0L1.896,-2.913L0.897,-2.913L0.897,0L0,0L0,-6.611ZM0.897,-3.697L2.073,-3.697C2.247,-3.697 2.42,-3.712 2.591,-3.74C2.762,-3.767 2.915,-3.819 3.048,-3.893C3.182,-3.969 3.29,-4.076 3.37,-4.216C3.451,-4.356 3.492,-4.538 3.492,-4.762C3.492,-4.986 3.451,-5.169 3.37,-5.309C3.29,-5.448 3.182,-5.556 3.048,-5.631C2.915,-5.705 2.762,-5.757 2.591,-5.784C2.42,-5.812 2.247,-5.827 2.073,-5.827L0.897,-5.827L0.897,-3.697Z" style="fill:rgb(43,61,118);fill-rule:nonzero;"/>
                        </g>
                        <g transform="matrix(4.16667,0,0,4.16667,476.882,153.804)">
                            <path d="M0,-6.611L1.037,-6.611L2.979,-1.232L2.997,-1.232L5.014,-6.611L5.995,-6.611L3.389,0L2.549,0L0,-6.611Z" style="fill:rgb(43,61,118);fill-rule:nonzero;"/>
                        </g>
                        <g transform="matrix(4.16667,0,0,4.16667,-3357.1,-1459.13)">
                            <rect x="928.811" y="380.494" width="0.896" height="6.611" style="fill:rgb(43,61,118);"/>
                        </g>
                        <g transform="matrix(4.16667,0,0,4.16667,550.728,147.85)">
                            <path d="M0,-3.753C-0.187,-3.996 -0.424,-4.183 -0.71,-4.314C-0.997,-4.445 -1.292,-4.51 -1.597,-4.51C-1.97,-4.51 -2.308,-4.44 -2.61,-4.3C-2.912,-4.159 -3.17,-3.968 -3.385,-3.725C-3.6,-3.482 -3.766,-3.198 -3.885,-2.871C-4.003,-2.544 -4.062,-2.194 -4.062,-1.821C-4.062,-1.472 -4.006,-1.142 -3.894,-0.831C-3.781,-0.519 -3.621,-0.245 -3.408,-0.008C-3.197,0.228 -2.938,0.414 -2.633,0.552C-2.328,0.688 -1.983,0.757 -1.597,0.757C-1.217,0.757 -0.884,0.679 -0.597,0.523C-0.311,0.368 -0.068,0.15 0.13,-0.13L0.887,0.439C0.837,0.508 0.75,0.606 0.626,0.733C0.501,0.861 0.336,0.989 0.13,1.117C-0.075,1.244 -0.322,1.356 -0.612,1.453C-0.901,1.549 -1.236,1.597 -1.615,1.597C-2.139,1.597 -2.61,1.498 -3.031,1.298C-3.45,1.099 -3.808,0.838 -4.104,0.514C-4.4,0.19 -4.626,-0.176 -4.781,-0.583C-4.937,-0.991 -5.015,-1.403 -5.015,-1.821C-5.015,-2.331 -4.931,-2.803 -4.763,-3.235C-4.594,-3.668 -4.359,-4.042 -4.057,-4.355C-3.755,-4.67 -3.393,-4.915 -2.969,-5.088C-2.546,-5.263 -2.079,-5.35 -1.569,-5.35C-1.133,-5.35 -0.705,-5.266 -0.285,-5.098C0.135,-4.93 0.479,-4.672 0.747,-4.323L0,-3.753Z" style="fill:rgb(43,61,118);fill-rule:nonzero;"/>
                        </g>
                        <g transform="matrix(4.16667,0,0,4.16667,566.719,153.804)">
                            <path d="M0,-6.611L4.267,-6.611L4.267,-5.771L0.897,-5.771L0.897,-3.801L4.034,-3.801L4.034,-2.96L0.897,-2.96L0.897,-0.84L4.435,-0.84L4.435,0L0,0L0,-6.611Z" style="fill:rgb(43,61,118);fill-rule:nonzero;"/>
                        </g>
                        <g transform="matrix(4.16667,0,0,4.16667,599.089,132.017)">
                            <path d="M0,3.847C0.162,4.09 0.369,4.269 0.621,4.384C0.873,4.499 1.133,4.556 1.401,4.556C1.55,4.556 1.703,4.533 1.859,4.486C2.014,4.44 2.155,4.37 2.283,4.277C2.411,4.183 2.515,4.068 2.596,3.931C2.677,3.794 2.717,3.636 2.717,3.455C2.717,3.2 2.637,3.005 2.474,2.871C2.313,2.737 2.112,2.625 1.872,2.535C1.633,2.445 1.371,2.358 1.088,2.273C0.805,2.19 0.543,2.073 0.304,1.924C0.064,1.774 -0.137,1.573 -0.298,1.321C-0.461,1.069 -0.541,0.728 -0.541,0.299C-0.541,0.105 -0.499,-0.1 -0.415,-0.317C-0.331,-0.536 -0.199,-0.735 -0.018,-0.915C0.162,-1.096 0.394,-1.247 0.677,-1.369C0.96,-1.49 1.301,-1.55 1.699,-1.55C2.061,-1.55 2.406,-1.501 2.736,-1.401C3.066,-1.301 3.356,-1.099 3.605,-0.794L2.877,-0.131C2.764,-0.306 2.605,-0.445 2.4,-0.551C2.195,-0.657 1.961,-0.71 1.699,-0.71C1.451,-0.71 1.244,-0.677 1.079,-0.612C0.914,-0.547 0.781,-0.462 0.682,-0.36C0.583,-0.257 0.513,-0.147 0.472,-0.029C0.431,0.09 0.411,0.199 0.411,0.299C0.411,0.578 0.492,0.793 0.654,0.942C0.816,1.093 1.016,1.214 1.256,1.307C1.495,1.4 1.757,1.485 2.04,1.559C2.324,1.634 2.585,1.738 2.824,1.872C3.064,2.006 3.265,2.186 3.427,2.414C3.589,2.641 3.67,2.954 3.67,3.352C3.67,3.67 3.609,3.956 3.488,4.211C3.367,4.467 3.203,4.681 2.998,4.855C2.792,5.03 2.549,5.163 2.27,5.257C1.989,5.351 1.69,5.397 1.373,5.397C0.949,5.397 0.548,5.323 0.168,5.173C-0.211,5.023 -0.514,4.793 -0.738,4.482L0,3.847Z" style="fill:rgb(43,61,118);fill-rule:nonzero;"/>
                        </g>
                        <g transform="matrix(0,-4.16667,-4.16667,0,666.657,35.8649)">
                            <path d="M-5.426,-5.426C-8.422,-5.426 -10.851,-2.997 -10.851,0C-10.851,2.997 -8.422,5.426 -5.426,5.426C-2.43,5.426 -0.001,2.997 -0.001,0C-0.001,-2.997 -2.43,-5.426 -5.426,-5.426" style="fill:rgb(249,208,150);fill-rule:nonzero;"/>
                        </g>
                        <g transform="matrix(4.16667,0,0,4.16667,-116.072,81.0757)">
                            <path d="M0,-39.769L15.672,-39.769C18.292,-39.769 20.82,-39.366 23.255,-38.561C25.689,-37.756 27.842,-36.529 29.715,-34.882C31.587,-33.234 33.085,-31.165 34.208,-28.675C35.332,-26.184 35.893,-23.255 35.893,-19.884C35.893,-16.476 35.248,-13.527 33.956,-11.037C32.664,-8.547 30.997,-6.488 28.956,-4.859C26.915,-3.23 24.65,-2.012 22.16,-1.207C19.668,-0.402 17.225,0 14.829,0L0,0L0,-39.769ZM12.357,-6.403C14.567,-6.403 16.655,-6.656 18.621,-7.162C20.587,-7.667 22.3,-8.454 23.76,-9.521C25.221,-10.588 26.372,-11.973 27.215,-13.677C28.058,-15.381 28.479,-17.45 28.479,-19.884C28.479,-22.281 28.104,-24.34 27.355,-26.063C26.606,-27.785 25.567,-29.181 24.238,-30.248C22.908,-31.315 21.335,-32.102 19.52,-32.607C17.703,-33.113 15.708,-33.366 13.537,-33.366L7.078,-33.366L7.078,-6.403L12.357,-6.403Z" style="fill:rgb(43,61,118);fill-rule:nonzero;"/>
                        </g>
                        <g transform="matrix(4.16667,0,0,4.16667,163.611,42.2228)">
                            <path d="M0,-21.12C-1.46,-22.693 -2.874,-23.741 -4.241,-24.266C-5.608,-24.789 -6.984,-25.052 -8.37,-25.052C-10.429,-25.052 -12.293,-24.687 -13.958,-23.957C-15.625,-23.226 -17.058,-22.215 -18.256,-20.923C-19.455,-19.631 -20.382,-18.124 -21.036,-16.402C-21.692,-14.679 -22.019,-12.825 -22.019,-10.841C-22.019,-8.706 -21.692,-6.74 -21.036,-4.943C-20.382,-3.145 -19.455,-1.591 -18.256,-0.281C-17.058,1.031 -15.625,2.06 -13.958,2.809C-12.293,3.559 -10.429,3.932 -8.37,3.932C-6.76,3.932 -5.196,3.549 -3.679,2.781C-2.163,2.014 -0.749,0.787 0.562,-0.898L6.404,3.258C4.606,5.73 2.415,7.527 -0.168,8.651C-2.752,9.774 -5.505,10.336 -8.426,10.336C-11.497,10.336 -14.315,9.839 -16.879,8.847C-19.445,7.856 -21.654,6.451 -23.508,4.635C-25.362,2.819 -26.813,0.638 -27.861,-1.909C-28.91,-4.455 -29.434,-7.282 -29.434,-10.391C-29.434,-13.574 -28.91,-16.467 -27.861,-19.07C-26.813,-21.672 -25.362,-23.891 -23.508,-25.726C-21.654,-27.56 -19.445,-28.974 -16.879,-29.967C-14.315,-30.959 -11.497,-31.456 -8.426,-31.456C-5.729,-31.456 -3.23,-30.978 -0.927,-30.023C1.376,-29.068 3.52,-27.448 5.505,-25.164L0,-21.12Z" style="fill:rgb(43,61,118);fill-rule:nonzero;"/>
                        </g>
                        <g transform="matrix(4.16667,0,0,4.16667,-3357.1,-1753.98)">
                            <rect x="852.834" y="397.948" width="6.74" height="42.466" style="fill:rgb(43,61,118);"/>
                        </g>
                        <g transform="matrix(4.16667,0,0,4.16667,239.44,24.9057)">
                            <path d="M0,0C0,-2.135 0.384,-4.073 1.152,-5.814C1.919,-7.555 2.958,-9.044 4.269,-10.28C5.58,-11.515 7.134,-12.47 8.931,-13.144C10.729,-13.818 12.638,-14.155 14.661,-14.155C16.683,-14.155 18.593,-13.818 20.39,-13.144C22.188,-12.47 23.741,-11.515 25.052,-10.28C26.363,-9.044 27.402,-7.555 28.17,-5.814C28.937,-4.073 29.322,-2.135 29.322,0C29.322,2.135 28.937,4.072 28.17,5.814C27.402,7.555 26.363,9.044 25.052,10.279C23.741,11.515 22.188,12.47 20.39,13.144C18.593,13.818 16.683,14.155 14.661,14.155C12.638,14.155 10.729,13.818 8.931,13.144C7.134,12.47 5.58,11.515 4.269,10.279C2.958,9.044 1.919,7.555 1.152,5.814C0.384,4.072 0,2.135 0,0M6.741,0C6.741,1.049 6.918,2.06 7.274,3.033C7.63,4.007 8.154,4.868 8.847,5.617C9.54,6.366 10.373,6.965 11.347,7.415C12.32,7.864 13.425,8.089 14.661,8.089C15.897,8.089 17.001,7.864 17.975,7.415C18.948,6.965 19.781,6.366 20.475,5.617C21.167,4.868 21.691,4.007 22.047,3.033C22.403,2.06 22.581,1.049 22.581,0C22.581,-1.048 22.403,-2.059 22.047,-3.033C21.691,-4.007 21.167,-4.868 20.475,-5.617C19.781,-6.366 18.948,-6.965 17.975,-7.415C17.001,-7.864 15.897,-8.089 14.661,-8.089C13.425,-8.089 12.32,-7.864 11.347,-7.415C10.373,-6.965 9.54,-6.366 8.847,-5.617C8.154,-4.868 7.63,-4.007 7.274,-3.033C6.918,-2.059 6.741,-1.048 6.741,0" style="fill:rgb(43,61,118);fill-rule:nonzero;"/>
                        </g>
                        <g transform="matrix(4.16667,0,0,4.16667,478.634,-28.4564)">
                            <path d="M0,26.288L-6.403,26.288L-6.403,21.963L-6.516,21.963C-7.153,23.311 -8.126,24.482 -9.437,25.474C-10.748,26.465 -12.526,26.962 -14.773,26.962C-16.57,26.962 -18.097,26.671 -19.351,26.091C-20.606,25.511 -21.626,24.725 -22.412,23.732C-23.199,22.74 -23.76,21.607 -24.097,20.334C-24.434,19.061 -24.603,17.731 -24.603,16.345L-24.603,-0.674L-17.862,-0.674L-17.862,12.975C-17.862,13.725 -17.825,14.558 -17.75,15.475C-17.676,16.393 -17.479,17.254 -17.16,18.059C-16.843,18.865 -16.355,19.539 -15.7,20.081C-15.045,20.624 -14.118,20.896 -12.919,20.896C-11.796,20.896 -10.85,20.709 -10.083,20.334C-9.316,19.96 -8.678,19.454 -8.173,18.817C-7.667,18.181 -7.302,17.451 -7.078,16.627C-6.853,15.803 -6.74,14.941 -6.74,14.043L-6.74,-0.674L0,-0.674L0,26.288Z" style="fill:rgb(43,61,118);fill-rule:nonzero;"/>
                        </g>
                        <g transform="matrix(4.16667,0,0,4.16667,587.698,-76.2001)">
                            <path d="M0,33.702L-0.112,33.702C-1.086,35.35 -2.397,36.548 -4.044,37.297C-5.693,38.046 -7.471,38.421 -9.38,38.421C-11.478,38.421 -13.341,38.055 -14.969,37.325C-16.599,36.595 -17.994,35.593 -19.154,34.32C-20.315,33.047 -21.196,31.549 -21.794,29.826C-22.394,28.104 -22.693,26.251 -22.693,24.265C-22.693,22.281 -22.375,20.427 -21.738,18.704C-21.102,16.982 -20.213,15.484 -19.07,14.211C-17.928,12.938 -16.552,11.936 -14.942,11.205C-13.332,10.475 -11.571,10.11 -9.661,10.11C-8.389,10.11 -7.265,10.242 -6.291,10.503C-5.318,10.766 -4.457,11.103 -3.707,11.514C-2.959,11.927 -2.322,12.367 -1.797,12.834C-1.273,13.303 -0.842,13.761 -0.505,14.211L-0.337,14.211L-0.337,-4.719L6.404,-4.719L6.404,37.746L0,37.746L0,33.702ZM-15.953,24.265C-15.953,25.314 -15.775,26.325 -15.419,27.298C-15.063,28.273 -14.54,29.134 -13.846,29.882C-13.154,30.632 -12.321,31.23 -11.347,31.68C-10.373,32.129 -9.268,32.354 -8.032,32.354C-6.797,32.354 -5.693,32.129 -4.719,31.68C-3.745,31.23 -2.912,30.632 -2.219,29.882C-1.526,29.134 -1.002,28.273 -0.646,27.298C-0.29,26.325 -0.112,25.314 -0.112,24.265C-0.112,23.217 -0.29,22.206 -0.646,21.232C-1.002,20.259 -1.526,19.398 -2.219,18.648C-2.912,17.899 -3.745,17.3 -4.719,16.851C-5.693,16.401 -6.797,16.177 -8.032,16.177C-9.268,16.177 -10.373,16.401 -11.347,16.851C-12.321,17.3 -13.154,17.899 -13.846,18.648C-14.54,19.398 -15.063,20.259 -15.419,21.232C-15.775,22.206 -15.953,23.217 -15.953,24.265" style="fill:rgb(43,61,118);fill-rule:nonzero;"/>
                        </g>
                        <g transform="matrix(4.16667,0,0,4.16667,-161.284,-55.4051)">
                            <path d="M0,16.006C0,18.266 -0.443,20.459 -1.318,22.526C-2.162,24.522 -3.37,26.312 -4.906,27.85C-6.443,29.388 -8.233,30.594 -10.229,31.438C-12.297,32.313 -14.491,32.756 -16.75,32.756L-64.162,32.756C-66.839,32.756 -69.436,32.231 -71.885,31.195C-74.245,30.197 -76.367,28.767 -78.188,26.948C-80.006,25.127 -81.436,23.006 -82.436,20.644C-83.471,18.197 -83.995,15.599 -83.995,12.923C-83.995,10.249 -83.471,7.649 -82.436,5.202C-81.436,2.84 -80.006,0.721 -78.188,-1.1C-76.367,-2.921 -74.245,-4.349 -71.885,-5.349C-69.436,-6.383 -66.839,-6.91 -64.162,-6.91C-64.018,-6.91 -63.875,-6.908 -63.731,-6.904C-63.729,-6.906 -63.727,-6.906 -63.725,-6.904C-63.665,-6.904 -63.605,-6.902 -63.546,-6.9C-63.432,-6.896 -63.317,-6.892 -63.201,-6.886C-63.18,-6.886 -63.158,-6.884 -63.135,-6.882C-63.012,-6.877 -62.889,-6.869 -62.765,-6.859C-62.704,-6.855 -62.642,-6.852 -62.581,-6.846C-62.448,-6.836 -62.314,-6.825 -62.183,-6.811C-62.103,-6.803 -62.022,-6.794 -61.943,-6.786C-61.877,-6.78 -61.812,-6.773 -61.746,-6.763C-61.644,-6.75 -61.542,-6.738 -61.44,-6.723C-61.418,-6.721 -61.397,-6.719 -61.376,-6.713C-61.264,-6.699 -61.153,-6.682 -61.041,-6.665C-61.03,-6.663 -61.02,-6.663 -61.008,-6.659C-59.517,-6.422 -58.062,-6.013 -56.656,-5.435C-56.584,-5.409 -56.513,-5.38 -56.442,-5.349C-54.079,-4.349 -51.96,-2.919 -50.139,-1.1C-48.686,0.353 -47.484,1.996 -46.549,3.802C-46.313,4.258 -46.093,4.725 -45.89,5.202C-45.871,5.251 -45.85,5.297 -45.833,5.345C-45.338,6.54 -44.964,7.769 -44.713,9.025C-44.673,9.224 -44.636,9.424 -44.603,9.624L-42.382,7.936L-44.96,17.216L-51.083,9.699L-48.628,10.372C-49.582,4.52 -53.765,-0.25 -59.288,-2.046C-59.382,-2.079 -59.478,-2.108 -59.577,-2.137C-59.769,-2.196 -59.964,-2.252 -60.16,-2.302C-60.259,-2.329 -60.357,-2.354 -60.455,-2.378L-60.457,-2.378C-60.542,-2.399 -60.626,-2.418 -60.713,-2.437C-60.806,-2.459 -60.898,-2.478 -60.993,-2.497C-61.103,-2.52 -61.21,-2.541 -61.32,-2.561C-61.436,-2.582 -61.553,-2.603 -61.671,-2.62C-61.742,-2.632 -61.813,-2.643 -61.885,-2.653C-61.975,-2.667 -62.066,-2.678 -62.156,-2.69L-62.158,-2.69C-62.245,-2.701 -62.334,-2.711 -62.42,-2.721C-62.476,-2.728 -62.531,-2.734 -62.586,-2.738C-62.729,-2.753 -62.873,-2.765 -63.016,-2.775C-63.106,-2.782 -63.199,-2.788 -63.292,-2.792C-63.336,-2.796 -63.382,-2.798 -63.428,-2.798C-63.505,-2.803 -63.582,-2.807 -63.661,-2.807C-63.827,-2.815 -63.995,-2.817 -64.162,-2.817C-72.856,-2.817 -79.904,4.231 -79.904,12.923C-79.904,21.617 -72.856,28.665 -64.162,28.665L-16.75,28.665C-9.759,28.665 -4.092,22.996 -4.092,16.006C-4.092,9.014 -9.759,3.347 -16.75,3.347C-17.224,3.347 -17.69,3.372 -18.15,3.422C-21.037,-5.892 -29.721,-12.657 -39.985,-12.657C-43.597,-12.657 -47.016,-11.819 -50.054,-10.324C-51.301,-11.295 -52.656,-12.108 -54.104,-12.755C-53.794,-12.948 -53.48,-13.133 -53.162,-13.312C-49.158,-15.561 -44.602,-16.75 -39.985,-16.75C-37.025,-16.75 -34.116,-16.272 -31.336,-15.33C-28.648,-14.42 -26.129,-13.093 -23.848,-11.385C-21.595,-9.699 -19.628,-7.682 -18,-5.387C-16.948,-3.908 -16.054,-2.333 -15.326,-0.686C-13.568,-0.538 -11.859,-0.116 -10.229,0.572C-8.233,1.416 -6.443,2.624 -4.906,4.162C-3.37,5.698 -2.162,7.489 -1.318,9.484C-0.443,11.551 0,13.746 0,16.006" style="fill:rgb(96,66,110);fill-rule:nonzero;"/>
                        </g>
                        <g transform="matrix(4.16667,0,0,4.16667,-380.826,-91.0905)">
                            <path d="M0,0C0,0.345 -0.085,0.67 -0.237,0.956C-0.266,1.016 -0.301,1.071 -0.337,1.127C-0.703,1.688 -1.337,2.058 -2.058,2.058C-2.304,2.058 -2.54,2.013 -2.759,1.935C-3.549,1.647 -4.115,0.89 -4.115,0C-4.115,-0.289 -4.056,-0.563 -3.948,-0.813C-3.933,-0.848 -3.917,-0.882 -3.9,-0.915C-3.564,-1.594 -2.865,-2.058 -2.058,-2.058C-0.998,-2.058 -0.127,-1.258 -0.013,-0.229C-0.004,-0.154 0,-0.077 0,0" style="fill:rgb(249,208,150);fill-rule:nonzero;"/>
                        </g>
                    </g>
                </g>
            </g>
        </g>
    </g>
</svg>
